<?xml version="1.0" encoding="UTF-8" standalone="no"?>
<!-- Created with Inkscape (http://www.inkscape.org/) -->

<svg
   xmlns:dc="http://purl.org/dc/elements/1.1/"
   xmlns:cc="http://creativecommons.org/ns#"
   xmlns:rdf="http://www.w3.org/1999/02/22-rdf-syntax-ns#"
   xmlns:svg="http://www.w3.org/2000/svg"
   xmlns="http://www.w3.org/2000/svg"
   xmlns:xlink="http://www.w3.org/1999/xlink"
   xmlns:sodipodi="http://sodipodi.sourceforge.net/DTD/sodipodi-0.dtd"
   xmlns:inkscape="http://www.inkscape.org/namespaces/inkscape"
   width="24"
   height="24"
   id="svg2"
   version="1.1"
   inkscape:version="0.48.4 r9939"
   sodipodi:docname="Save.svg"
   inkscape:export-filename="C:\Users\12er\Desktop\fractals\Fractals\draft\icons\Save.png"
   inkscape:export-xdpi="90"
   inkscape:export-ydpi="90">
  <sodipodi:namedview
     id="base"
     pagecolor="#ffffff"
     bordercolor="#666666"
     borderopacity="1.0"
     inkscape:pageopacity="0.0"
     inkscape:pageshadow="2"
     inkscape:zoom="31.678384"
     inkscape:cx="5.4848734"
     inkscape:cy="-0.38011073"
     inkscape:document-units="px"
     inkscape:current-layer="layer1"
     showgrid="false"
     inkscape:window-width="1920"
     inkscape:window-height="1018"
     inkscape:window-x="-8"
     inkscape:window-y="-8"
     inkscape:window-maximized="1" />
  <defs
     id="defs4">
    <marker
       style="overflow:visible"
       id="SquareS"
       refX="0.0"
       refY="0.0"
       orient="auto"
       inkscape:stockid="SquareS">
      <path
         transform="scale(0.2)"
         style="fill-rule:evenodd;stroke:#000000;stroke-width:1.0pt"
         d="M -5.0,-5.0 L -5.0,5.0 L 5.0,5.0 L 5.0,-5.0 L -5.0,-5.0 z "
         id="path3837" />
    </marker>
    <marker
       style="overflow:visible"
       id="DotS"
       refX="0.0"
       refY="0.0"
       orient="auto"
       inkscape:stockid="DotS">
      <path
         transform="scale(0.2) translate(7.4, 1)"
         style="fill-rule:evenodd;stroke:#000000;stroke-width:1.0pt"
         d="M -2.5,-1.0 C -2.5,1.7600000 -4.7400000,4.0 -7.5,4.0 C -10.260000,4.0 -12.5,1.7600000 -12.5,-1.0 C -12.5,-3.7600000 -10.260000,-6.0 -7.5,-6.0 C -4.7400000,-6.0 -2.5,-3.7600000 -2.5,-1.0 z "
         id="path3828" />
    </marker>
    <linearGradient
       id="linearGradient7748">
      <stop
         id="stop7750"
         offset="0"
         style="stop-color:#121212;stop-opacity:1;" />
      <stop
         id="stop7752"
         offset="1"
         style="stop-color:#636363;stop-opacity:1;" />
    </linearGradient>
    <linearGradient
       id="linearGradient7740">
      <stop
         id="stop7742"
         offset="0"
         style="stop-color:#767676;stop-opacity:1;" />
      <stop
         id="stop7744"
         offset="1"
         style="stop-color:#767676;stop-opacity:0;" />
    </linearGradient>
    <linearGradient
       id="linearGradient7712">
      <stop
         id="stop7714"
         offset="0"
         style="stop-color:#c9c9c9;stop-opacity:1;" />
      <stop
         id="stop7716"
         offset="1"
         style="stop-color:#ffffff;stop-opacity:1;" />
    </linearGradient>
    <linearGradient
       id="linearGradient7704">
      <stop
         id="stop7706"
         offset="0"
         style="stop-color:#356eb3;stop-opacity:1;" />
      <stop
         id="stop7708"
         offset="1"
         style="stop-color:#ffffff;stop-opacity:1;" />
    </linearGradient>
    <linearGradient
       id="linearGradient7694">
      <stop
         id="stop7696"
         offset="0"
         style="stop-color:#356eb3;stop-opacity:1;" />
      <stop
         id="stop7698"
         offset="1"
         style="stop-color:#c3d6ed;stop-opacity:1;" />
    </linearGradient>
    <marker
       inkscape:stockid="DotM"
       orient="auto"
       refY="0.0"
       refX="0.0"
       id="DotM"
       style="overflow:visible">
      <path
         id="path3825"
         d="M -2.5,-1.0 C -2.5,1.7600000 -4.7400000,4.0 -7.5,4.0 C -10.260000,4.0 -12.5,1.7600000 -12.5,-1.0 C -12.5,-3.7600000 -10.260000,-6.0 -7.5,-6.0 C -4.7400000,-6.0 -2.5,-3.7600000 -2.5,-1.0 z "
         style="fill-rule:evenodd;stroke:#000000;stroke-width:1.0pt"
         transform="scale(0.4) translate(7.4, 1)" />
    </marker>
    <marker
       inkscape:stockid="SquareM"
       orient="auto"
       refY="0.0"
       refX="0.0"
       id="SquareM"
       style="overflow:visible">
      <path
         id="path3834"
         d="M -5.0,-5.0 L -5.0,5.0 L 5.0,5.0 L 5.0,-5.0 L -5.0,-5.0 z "
         style="fill-rule:evenodd;stroke:#000000;stroke-width:1.0pt"
         transform="scale(0.4)" />
    </marker>
    <marker
       inkscape:stockid="Arrow2Send"
       orient="auto"
       refY="0.0"
       refX="0.0"
       id="Arrow2Send"
       style="overflow:visible;">
      <path
         id="path3794"
         style="fill-rule:evenodd;stroke-width:0.62500000;stroke-linejoin:round;"
         d="M 8.7185878,4.0337352 L -2.2072895,0.016013256 L 8.7185884,-4.0017078 C 6.9730900,-1.6296469 6.9831476,1.6157441 8.7185878,4.0337352 z "
         transform="scale(0.3) rotate(180) translate(-2.3,0)" />
    </marker>
    <marker
       inkscape:stockid="Arrow2Mend"
       orient="auto"
       refY="0.0"
       refX="0.0"
       id="Arrow2Mend"
       style="overflow:visible;">
      <path
         id="path3788"
         style="fill-rule:evenodd;stroke-width:0.62500000;stroke-linejoin:round;"
         d="M 8.7185878,4.0337352 L -2.2072895,0.016013256 L 8.7185884,-4.0017078 C 6.9730900,-1.6296469 6.9831476,1.6157441 8.7185878,4.0337352 z "
         transform="scale(0.6) rotate(180) translate(0,0)" />
    </marker>
    <marker
       inkscape:stockid="Arrow2Lend"
       orient="auto"
       refY="0.0"
       refX="0.0"
       id="Arrow2Lend"
       style="overflow:visible;">
      <path
         id="path3782"
         style="fill-rule:evenodd;stroke-width:0.62500000;stroke-linejoin:round;"
         d="M 8.7185878,4.0337352 L -2.2072895,0.016013256 L 8.7185884,-4.0017078 C 6.9730900,-1.6296469 6.9831476,1.6157441 8.7185878,4.0337352 z "
         transform="scale(1.1) rotate(180) translate(1,0)" />
    </marker>
    <marker
       inkscape:stockid="Arrow1Lend"
       orient="auto"
       refY="0.0"
       refX="0.0"
       id="Arrow1Lend"
       style="overflow:visible;">
      <path
         id="path3764"
         d="M 0.0,0.0 L 5.0,-5.0 L -12.5,0.0 L 5.0,5.0 L 0.0,0.0 z "
         style="fill-rule:evenodd;stroke:#000000;stroke-width:1.0pt;"
         transform="scale(0.8) rotate(180) translate(12.5,0)" />
    </marker>
    <marker
       inkscape:stockid="Arrow2Mend"
       orient="auto"
       refY="0"
       refX="0"
       id="Arrow2Mend-1"
       style="overflow:visible">
      <path
         inkscape:connector-curvature="0"
         id="path3788-7"
         style="fill-rule:evenodd;stroke-width:0.625;stroke-linejoin:round"
         d="M 8.7185878,4.0337352 -2.2072895,0.01601326 8.7185884,-4.0017078 c -1.7454984,2.3720609 -1.7354408,5.6174519 -6e-7,8.035443 z"
         transform="scale(-0.6,-0.6)" />
    </marker>
    <marker
       inkscape:stockid="Arrow2Mendb"
       orient="auto"
       refY="0.0"
       refX="0.0"
       id="Arrow2Mendb"
       style="overflow:visible;">
      <path
         id="path7650"
         style="stroke-linejoin:round;stroke:#ffffff;stroke-width:0.62500000;fill:#ffffff;fill-rule:evenodd"
         d="M 8.7185878,4.0337352 L -2.2072895,0.016013256 L 8.7185884,-4.0017078 C 6.9730900,-1.6296469 6.9831476,1.6157441 8.7185878,4.0337352 z "
         transform="scale(0.6) rotate(180) translate(0,0)" />
    </marker>
    <marker
       inkscape:stockid="SquareMA"
       orient="auto"
       refY="0.0"
       refX="0.0"
       id="SquareMA"
       style="overflow:visible">
      <path
         id="path7653"
         d="M -5.0,-5.0 L -5.0,5.0 L 5.0,5.0 L 5.0,-5.0 L -5.0,-5.0 z "
         style="stroke:#ffffff;stroke-width:1.0pt;fill:#ffffff;fill-rule:evenodd"
         transform="scale(0.4)" />
    </marker>
    <marker
       inkscape:stockid="DotMU"
       orient="auto"
       refY="0.0"
       refX="0.0"
       id="DotMU"
       style="overflow:visible">
      <path
         id="path7656"
         d="M -2.5,-1.0 C -2.5,1.7600000 -4.7400000,4.0 -7.5,4.0 C -10.260000,4.0 -12.5,1.7600000 -12.5,-1.0 C -12.5,-3.7600000 -10.260000,-6.0 -7.5,-6.0 C -4.7400000,-6.0 -2.5,-3.7600000 -2.5,-1.0 z "
         style="stroke:#ffffff;stroke-width:1.0pt;fill:#ffffff;fill-rule:evenodd"
         transform="scale(0.4) translate(7.4, 1)" />
    </marker>
    <linearGradient
       gradientTransform="matrix(1.7230351,0,0,1.3260568,-8.5866526,-338.79298)"
       gradientUnits="userSpaceOnUse"
       y2="1035.3531"
       x2="6.6065102"
       y1="1041.246"
       x1="13.929203"
       id="linearGradient7700"
       xlink:href="#linearGradient7694"
       inkscape:collect="always" />
    <linearGradient
       gradientTransform="matrix(1.6963356,0,0,2.8233235,-8.4480987,-1908.6677)"
       gradientUnits="userSpaceOnUse"
       y2="1047.2729"
       x2="12.550714"
       y1="1043.2551"
       x1="9.3242855"
       id="linearGradient7718"
       xlink:href="#linearGradient7712"
       inkscape:collect="always" />
    <linearGradient
       gradientTransform="matrix(1.331,0,0,1.331,-4.0240393,-343.59235)"
       gradientUnits="userSpaceOnUse"
       y2="1046.7706"
       x2="10.857829"
       y1="1046.3688"
       x1="10.637703"
       id="linearGradient7754"
       xlink:href="#linearGradient7748"
       inkscape:collect="always" />
    <linearGradient
       gradientUnits="userSpaceOnUse"
       y2="1046.7706"
       x2="10.857829"
       y1="1046.3688"
       x1="10.637703"
       id="linearGradient7754-9"
       xlink:href="#linearGradient7748-4"
       inkscape:collect="always" />
    <linearGradient
       id="linearGradient7748-4"
       inkscape:collect="always">
      <stop
         id="stop7750-8"
         offset="0"
         style="stop-color:#c9c9c9;stop-opacity:1;" />
      <stop
         id="stop7752-8"
         offset="1"
         style="stop-color:#c9c9c9;stop-opacity:0;" />
    </linearGradient>
    <linearGradient
       gradientUnits="userSpaceOnUse"
       y2="1046.7706"
       x2="10.857829"
       y1="1046.3688"
       x1="10.637703"
       id="linearGradient7754-4"
       xlink:href="#linearGradient7748-5"
       inkscape:collect="always" />
    <linearGradient
       id="linearGradient7748-5">
      <stop
         id="stop7750-5"
         offset="0"
         style="stop-color:#1c1c1c;stop-opacity:1;" />
      <stop
         id="stop7752-1"
         offset="1"
         style="stop-color:#636363;stop-opacity:1;" />
    </linearGradient>
    <linearGradient
       inkscape:collect="always"
       xlink:href="#linearGradient7748-5"
       id="linearGradient7805"
       gradientUnits="userSpaceOnUse"
       x1="10.637703"
       y1="1046.3688"
       x2="10.857829"
       y2="1046.7706"
       gradientTransform="matrix(1.331,0,0,1.331,-1.2419716,-343.5876)" />
    <linearGradient
       inkscape:collect="always"
       xlink:href="#linearGradient7748-5-1"
       id="linearGradient7805-1"
       gradientUnits="userSpaceOnUse"
       x1="10.637703"
       y1="1046.3688"
       x2="10.857829"
       y2="1046.7706"
       gradientTransform="translate(1.6798341,0.00915599)" />
    <linearGradient
       id="linearGradient7748-5-1">
      <stop
         id="stop7750-5-5"
         offset="0"
         style="stop-color:#959595;stop-opacity:1;" />
      <stop
         id="stop7752-1-2"
         offset="1"
         style="stop-color:#cfcfcf;stop-opacity:1;" />
    </linearGradient>
    <linearGradient
       inkscape:collect="always"
       xlink:href="#linearGradient7748-5-14"
       id="linearGradient7805-6"
       gradientUnits="userSpaceOnUse"
       x1="10.637703"
       y1="1046.3688"
       x2="10.857829"
       y2="1046.7706"
       gradientTransform="translate(-15.961143,11.598055)" />
    <linearGradient
       id="linearGradient7748-5-14">
      <stop
         id="stop7750-5-2"
         offset="0"
         style="stop-color:#959595;stop-opacity:1;" />
      <stop
         id="stop7752-1-3"
         offset="1"
         style="stop-color:#cfcfcf;stop-opacity:1;" />
    </linearGradient>
    <linearGradient
       gradientTransform="translate(-18.051352,11.594455)"
       gradientUnits="userSpaceOnUse"
       y2="1046.7706"
       x2="10.857829"
       y1="1046.3688"
       x1="10.637703"
       id="linearGradient7754-2"
       xlink:href="#linearGradient7748-2"
       inkscape:collect="always" />
    <linearGradient
       id="linearGradient7748-2">
      <stop
         id="stop7750-1"
         offset="0"
         style="stop-color:#959595;stop-opacity:1;" />
      <stop
         id="stop7752-6"
         offset="1"
         style="stop-color:#cfcfcf;stop-opacity:1;" />
    </linearGradient>
    <marker
       inkscape:stockid="SquareMA"
       orient="auto"
       refY="0"
       refX="0"
       id="SquareMA-8"
       style="overflow:visible">
      <path
         id="path7653-5"
         d="M -5,-5 -5,5 5,5 5,-5 -5,-5 z"
         style="fill:#ffffff;fill-rule:evenodd;stroke:#ffffff;stroke-width:1pt"
         transform="scale(0.4,0.4)"
         inkscape:connector-curvature="0" />
    </marker>
    <marker
       inkscape:stockid="DotMU"
       orient="auto"
       refY="0"
       refX="0"
       id="DotMU-7"
       style="overflow:visible">
      <path
         id="path7656-6"
         d="m -2.5,-1 c 0,2.76 -2.24,5 -5,5 -2.76,0 -5,-2.24 -5,-5 0,-2.76 2.24,-5 5,-5 2.76,0 5,2.24 5,5 z"
         style="fill:#ffffff;fill-rule:evenodd;stroke:#ffffff;stroke-width:1pt"
         transform="matrix(0.4,0,0,0.4,2.96,0.4)"
         inkscape:connector-curvature="0" />
    </marker>
    <marker
       inkscape:stockid="Arrow2Mendb"
       orient="auto"
       refY="0"
       refX="0"
       id="Arrow2Mendb-1"
       style="overflow:visible">
      <path
         id="path7650-8"
         style="fill:#ffffff;fill-rule:evenodd;stroke:#ffffff;stroke-width:0.625;stroke-linejoin:round"
         d="M 8.7185878,4.0337352 -2.2072895,0.01601326 8.7185884,-4.0017078 c -1.7454984,2.3720609 -1.7354408,5.6174519 -6e-7,8.035443 z"
         transform="scale(-0.6,-0.6)"
         inkscape:connector-curvature="0" />
    </marker>
    <linearGradient
       gradientTransform="translate(-17.861948,11.341855)"
       gradientUnits="userSpaceOnUse"
       y2="1035.3531"
       x2="6.6065102"
       y1="1041.246"
       x1="13.929203"
       id="linearGradient7700-9"
       xlink:href="#linearGradient7694-2"
       inkscape:collect="always" />
    <linearGradient
       id="linearGradient7694-2">
      <stop
         id="stop7696-7"
         offset="0"
         style="stop-color:#356eb3;stop-opacity:1;" />
      <stop
         id="stop7698-9"
         offset="1"
         style="stop-color:#ffffff;stop-opacity:1;" />
    </linearGradient>
    <linearGradient
       gradientTransform="translate(-17.861948,11.341855)"
       gradientUnits="userSpaceOnUse"
       y2="1038.9246"
       x2="15.445796"
       y1="1038.9246"
       x1="8.6613455"
       id="linearGradient7710-5"
       xlink:href="#linearGradient7694-2"
       inkscape:collect="always" />
    <linearGradient
       id="linearGradient7887">
      <stop
         id="stop7889"
         offset="0"
         style="stop-color:#356eb3;stop-opacity:1;" />
      <stop
         id="stop7891"
         offset="1"
         style="stop-color:#ffffff;stop-opacity:1;" />
    </linearGradient>
    <linearGradient
       gradientTransform="translate(-0.01882022,0.38230842)"
       gradientUnits="userSpaceOnUse"
       y2="1047.2729"
       x2="12.550714"
       y1="1043.2551"
       x1="9.3242855"
       id="linearGradient7718-4"
       xlink:href="#linearGradient7712-3"
       inkscape:collect="always" />
    <linearGradient
       id="linearGradient7712-3">
      <stop
         id="stop7714-1"
         offset="0"
         style="stop-color:#c9c9c9;stop-opacity:1;" />
      <stop
         id="stop7716-2"
         offset="1"
         style="stop-color:#c9c9c9;stop-opacity:0;" />
    </linearGradient>
    <linearGradient
       inkscape:collect="always"
       xlink:href="#linearGradient7712-3"
       id="linearGradient7905"
       gradientUnits="userSpaceOnUse"
       gradientTransform="translate(-18.007038,-1017.143)"
       x1="9.3242855"
       y1="1043.2551"
       x2="12.550714"
       y2="1047.2729" />
    <linearGradient
       inkscape:collect="always"
       xlink:href="#linearGradient7748-5-2"
       id="linearGradient7805-4"
       gradientUnits="userSpaceOnUse"
       x1="10.637703"
       y1="1046.3688"
       x2="10.857829"
       y2="1046.7706"
       gradientTransform="matrix(1.331,0,0,1.331,-1.2419716,-343.5876)" />
    <linearGradient
       id="linearGradient7748-5-2">
      <stop
         id="stop7750-5-7"
         offset="0"
         style="stop-color:#1c1c1c;stop-opacity:1;" />
      <stop
         id="stop7752-1-7"
         offset="1"
         style="stop-color:#3c3c3c;stop-opacity:1;" />
    </linearGradient>
    <linearGradient
       inkscape:collect="always"
       xlink:href="#linearGradient7748-5-2"
       id="linearGradient8034"
       gradientUnits="userSpaceOnUse"
       gradientTransform="matrix(1.331,0,0,1.331,-4.0613962,-343.61119)"
       x1="10.637703"
       y1="1046.3688"
       x2="10.857829"
       y2="1046.7706" />
    <linearGradient
       inkscape:collect="always"
       xlink:href="#linearGradient7748-5-2-1"
       id="linearGradient8034-3"
       gradientUnits="userSpaceOnUse"
       gradientTransform="matrix(1.331,0,0,1.331,-25.839919,-320.05101)"
       x1="10.637703"
       y1="1046.3688"
       x2="10.857829"
       y2="1046.7706" />
    <linearGradient
       id="linearGradient7748-5-2-1">
      <stop
         id="stop7750-5-7-9"
         offset="0"
         style="stop-color:#1c1c1c;stop-opacity:1;" />
      <stop
         id="stop7752-1-7-8"
         offset="1"
         style="stop-color:#636363;stop-opacity:1;" />
    </linearGradient>
    <linearGradient
       inkscape:collect="always"
       xlink:href="#linearGradient7748-5-0"
       id="linearGradient7805-65"
       gradientUnits="userSpaceOnUse"
       x1="10.637703"
       y1="1046.3688"
       x2="10.857829"
       y2="1046.7706"
       gradientTransform="matrix(1.331,0,0,1.331,-23.020495,-320.02741)" />
    <linearGradient
       id="linearGradient7748-5-0">
      <stop
         id="stop7750-5-28"
         offset="0"
         style="stop-color:#1c1c1c;stop-opacity:1;" />
      <stop
         id="stop7752-1-6"
         offset="1"
         style="stop-color:#636363;stop-opacity:1;" />
    </linearGradient>
    <marker
       inkscape:stockid="SquareMA"
       orient="auto"
       refY="0"
       refX="0"
       id="SquareMA-0"
       style="overflow:visible">
      <path
         id="path7653-2"
         d="M -5,-5 -5,5 5,5 5,-5 -5,-5 z"
         style="fill:#ffffff;fill-rule:evenodd;stroke:#ffffff;stroke-width:1pt"
         transform="scale(0.4,0.4)"
         inkscape:connector-curvature="0" />
    </marker>
    <marker
       inkscape:stockid="DotMU"
       orient="auto"
       refY="0"
       refX="0"
       id="DotMU-4"
       style="overflow:visible">
      <path
         id="path7656-8"
         d="m -2.5,-1 c 0,2.76 -2.24,5 -5,5 -2.76,0 -5,-2.24 -5,-5 0,-2.76 2.24,-5 5,-5 2.76,0 5,2.24 5,5 z"
         style="fill:#ffffff;fill-rule:evenodd;stroke:#ffffff;stroke-width:1pt"
         transform="matrix(0.4,0,0,0.4,2.96,0.4)"
         inkscape:connector-curvature="0" />
    </marker>
    <marker
       inkscape:stockid="Arrow2Mendb"
       orient="auto"
       refY="0"
       refX="0"
       id="Arrow2Mendb-6"
       style="overflow:visible">
      <path
         id="path7650-5"
         style="fill:#ffffff;fill-rule:evenodd;stroke:#ffffff;stroke-width:0.625;stroke-linejoin:round"
         d="M 8.7185878,4.0337352 -2.2072895,0.01601326 8.7185884,-4.0017078 c -1.7454984,2.3720609 -1.7354408,5.6174519 -6e-7,8.035443 z"
         transform="scale(-0.6,-0.6)"
         inkscape:connector-curvature="0" />
    </marker>
    <linearGradient
       gradientTransform="matrix(1.7230351,0,0,1.3260568,-30.365176,-315.23281)"
       gradientUnits="userSpaceOnUse"
       y2="1035.3531"
       x2="6.6065102"
       y1="1041.246"
       x1="13.929203"
       id="linearGradient7700-0"
       xlink:href="#linearGradient7694-9"
       inkscape:collect="always" />
    <linearGradient
       id="linearGradient7694-9">
      <stop
         id="stop7696-0"
         offset="0"
         style="stop-color:#356eb3;stop-opacity:1;" />
      <stop
         id="stop7698-0"
         offset="1"
         style="stop-color:#c3d6ed;stop-opacity:1;" />
    </linearGradient>
    <linearGradient
       gradientTransform="matrix(1.6963356,0,0,2.8233235,-8.4480987,-1908.6677)"
       gradientUnits="userSpaceOnUse"
       y2="1047.2729"
       x2="12.550714"
       y1="1043.2551"
       x1="9.3242855"
       id="linearGradient7718-6"
       xlink:href="#linearGradient7712-1"
       inkscape:collect="always" />
    <linearGradient
       id="linearGradient7712-1">
      <stop
         id="stop7714-3"
         offset="0"
         style="stop-color:#c9c9c9;stop-opacity:1;" />
      <stop
         id="stop7716-8"
         offset="1"
         style="stop-color:#ffffff;stop-opacity:1;" />
    </linearGradient>
    <linearGradient
       inkscape:collect="always"
       xlink:href="#linearGradient7712-1"
       id="linearGradient8093"
       gradientUnits="userSpaceOnUse"
       gradientTransform="matrix(1.6963356,0,0,2.8233235,-30.226622,-2913.4697)"
       x1="9.3242855"
       y1="1043.2551"
       x2="12.550714"
       y2="1047.2729" />
    <filter
       height="1.2788625"
       y="-0.13943123"
       width="1.5160459"
       x="-0.25802293"
       id="filter8199"
       inkscape:collect="always">
      <feGaussianBlur
         id="feGaussianBlur8201"
         stdDeviation="1.2363599"
         inkscape:collect="always" />
    </filter>
    <marker
       inkscape:stockid="Arrow2Send2"
       orient="auto"
       refY="0.0"
       refX="0.0"
       id="Arrow2Send2"
       style="overflow:visible;">
      <path
         id="path10045"
         style="stroke-linejoin:round;stroke:#ffffff;stroke-width:0.62500000;fill:#ffffff;fill-rule:evenodd"
         d="M 8.7185878,4.0337352 L -2.2072895,0.016013256 L 8.7185884,-4.0017078 C 6.9730900,-1.6296469 6.9831476,1.6157441 8.7185878,4.0337352 z "
         transform="scale(0.3) rotate(180) translate(-2.3,0)" />
    </marker>
    <marker
       style="overflow:visible"
       id="SquareS1"
       refX="0.0"
       refY="0.0"
       orient="auto"
       inkscape:stockid="SquareS1">
      <path
         transform="scale(0.2)"
         style="stroke:#ffffff;stroke-width:1.0pt;fill:#ffffff;fill-rule:evenodd"
         d="M -5.0,-5.0 L -5.0,5.0 L 5.0,5.0 L 5.0,-5.0 L -5.0,-5.0 z "
         id="path10048" />
    </marker>
    <marker
       style="overflow:visible"
       id="DotSe"
       refX="0.0"
       refY="0.0"
       orient="auto"
       inkscape:stockid="DotSe">
      <path
         transform="scale(0.2) translate(7.4, 1)"
         style="stroke:#ffffff;stroke-width:1.0pt;fill:#ffffff;fill-rule:evenodd"
         d="M -2.5,-1.0 C -2.5,1.7600000 -4.7400000,4.0 -7.5,4.0 C -10.260000,4.0 -12.5,1.7600000 -12.5,-1.0 C -12.5,-3.7600000 -10.260000,-6.0 -7.5,-6.0 C -4.7400000,-6.0 -2.5,-3.7600000 -2.5,-1.0 z "
         id="path10051" />
    </marker>
    <linearGradient
       inkscape:collect="always"
       xlink:href="#linearGradient7712"
       id="linearGradient10196"
       gradientUnits="userSpaceOnUse"
       gradientTransform="matrix(1.692094,0,0,2.9574636,-8.3967825,-2048.6656)"
       x1="9.3242855"
       y1="1043.2551"
       x2="12.550714"
       y2="1047.2729" />
    <linearGradient
       inkscape:collect="always"
       xlink:href="#linearGradient7748-5-2"
       id="linearGradient10198"
       gradientUnits="userSpaceOnUse"
       gradientTransform="matrix(1.331,0,0,1.331,-4.1876653,-343.23238)"
       x1="10.637703"
       y1="1046.3688"
       x2="10.857829"
       y2="1046.7706" />
    <linearGradient
       inkscape:collect="always"
       xlink:href="#linearGradient7748-5"
       id="linearGradient10200"
       gradientUnits="userSpaceOnUse"
       gradientTransform="matrix(1.331,0,0,1.331,-0.98943346,-343.08252)"
       x1="10.637703"
       y1="1046.3688"
       x2="10.857829"
       y2="1046.7706" />
    <linearGradient
       inkscape:collect="always"
       xlink:href="#linearGradient7748-5-2-8"
       id="linearGradient10198-1"
       gradientUnits="userSpaceOnUse"
       gradientTransform="matrix(1.331,0,0,1.331,-4.1876653,-343.23238)"
       x1="10.637703"
       y1="1046.3688"
       x2="10.857829"
       y2="1046.7706" />
    <linearGradient
       id="linearGradient7748-5-2-8">
      <stop
         id="stop7750-5-7-4"
         offset="0"
         style="stop-color:#1c1c1c;stop-opacity:1;" />
      <stop
         id="stop7752-1-7-9"
         offset="1"
         style="stop-color:#3c3c3c;stop-opacity:1;" />
    </linearGradient>
    <linearGradient
       y2="1046.7706"
       x2="10.857829"
       y1="1046.3688"
       x1="10.637703"
       gradientTransform="matrix(1.331,0,0,1.331,-1.2382747,-343.20863)"
       gradientUnits="userSpaceOnUse"
       id="linearGradient10217"
       xlink:href="#linearGradient7748-5-2-8"
       inkscape:collect="always" />
  </defs>
  <metadata
     id="metadata7">
    <rdf:RDF>
      <cc:Work
         rdf:about="">
        <dc:format>image/svg+xml</dc:format>
        <dc:type
           rdf:resource="http://purl.org/dc/dcmitype/StillImage" />
        <dc:title></dc:title>
      </cc:Work>
    </rdf:RDF>
  </metadata>
  <g
     inkscape:label="Layer 1"
     inkscape:groupmode="layer"
     id="layer1"
     transform="translate(0,-1028.3622)">
    <path
       inkscape:export-ydpi="90"
       inkscape:export-xdpi="90"
       inkscape:connector-curvature="0"
       id="rect7702-9"
       d="m 12.023642,1031.2339 c -1.793427,0 -3.25,1.4565 -3.25,3.25 l 0,11.7187 c 0,1.3451 0.837328,2.5099 2,3 l 0,2.5625 c 0,0.4108 0.30792,0.75 0.71875,0.75 l 5.84375,0 c 0.41083,0 0.71875,-0.3392 0.71875,-0.75 l 0,-2.5 c 1.276907,-0.4331 2.21875,-1.6355 2.21875,-3.0625 l 0,-11.7187 c 0,-1.7935 -1.456573,-3.25 -3.25,-3.25 l -5,0 z"
       style="opacity:0.18859648;fill:#000000;fill-opacity:1;fill-rule:nonzero;stroke:none;filter:url(#filter8199)" />
    <rect
       rx="0.73971599"
       y="1038.15"
       x="8.4342451"
       height="13.517258"
       width="7.2805738"
       id="rect7702"
       style="fill:url(#linearGradient10196);fill-opacity:1;fill-rule:nonzero;stroke:#767676;stroke-width:0.84035701;stroke-linecap:butt;stroke-linejoin:round;stroke-miterlimit:4;stroke-opacity:1;stroke-dasharray:none;stroke-dashoffset:0" />
    <rect
       style="fill:url(#linearGradient7700);fill-opacity:1;stroke:#224772;stroke-width:0.8;stroke-miterlimit:4;stroke-opacity:1;stroke-dasharray:none"
       id="rect7631"
       width="11.474468"
       height="18.196966"
       x="6.44484"
       y="1029.7814"
       rx="3.2372327" />
    <path
       sodipodi:type="arc"
       style="fill:#ffffff;fill-opacity:1;fill-rule:nonzero;stroke:none"
       id="path2985"
       sodipodi:cx="11.071428"
       sodipodi:cy="17.303572"
       sodipodi:rx="1.0714285"
       sodipodi:ry="1.0714285"
       d="m 12.142857,17.303572 c 0,0.591733 -0.479695,1.071428 -1.071429,1.071428 -0.591733,0 -1.0714282,-0.479695 -1.0714282,-1.071428 0,-0.591734 0.4796952,-1.071429 1.0714282,-1.071429 0.591734,0 1.071429,0.479695 1.071429,1.071429 z"
       transform="matrix(1.1190152,0,0,1.014722,-0.29844293,1027.1478)" />
    <path
       style="stroke-linejoin:miter;marker-end:url(#Arrow2Send2);stroke-opacity:1;stroke:#ffffff;stroke-linecap:butt;stroke-miterlimit:4;stroke-dasharray:none;stroke-width:0.80000000000000004;marker-mid:none;fill:none"
       d="m 12.04019,1044.7297 0.09992,-12.412"
       id="path4939"
       inkscape:connector-curvature="0" />
    <path
       style="stroke-linejoin:miter;marker-end:url(#DotSe);stroke-opacity:1;stroke:#ffffff;stroke-linecap:butt;stroke-miterlimit:4;stroke-dasharray:none;stroke-width:0.80000000000000004;fill:none"
       d="m 12.04019,1044.5486 0,-1.7213 -2.8974504,-1.8121 0,-3.4428"
       id="path5505"
       inkscape:connector-curvature="0" />
    <path
       style="stroke-linejoin:miter;marker-end:url(#SquareS1);stroke-opacity:1;stroke:#ffffff;stroke-linecap:butt;stroke-miterlimit:4;stroke-dasharray:none;stroke-width:0.80000000000000004;fill:none"
       d="m 12.060036,1042.2242 0,-1.7214 2.897451,-1.8118 0,-3.443"
       id="path5505-4"
       inkscape:connector-curvature="0" />
    <rect
       ry="0"
       rx="0"
       y="1049.2614"
       x="9.9354639"
       height="1.0404031"
       width="1.3150067"
       id="rect7720-7-9"
       style="fill:url(#linearGradient10198);fill-opacity:1;fill-rule:nonzero;stroke:#767676;stroke-width:0.04421641;stroke-linecap:butt;stroke-linejoin:round;stroke-miterlimit:4;stroke-opacity:1;stroke-dasharray:none;stroke-dashoffset:0" />
    <rect
       ry="0"
       rx="0"
       y="1049.2852"
       x="12.884853"
       height="1.0404031"
       width="1.3150067"
       id="rect7720-7-9-6"
       style="fill:url(#linearGradient10217);fill-opacity:1;fill-rule:nonzero;stroke:#767676;stroke-width:0.04421641;stroke-linecap:butt;stroke-linejoin:round;stroke-miterlimit:4;stroke-opacity:1;stroke-dasharray:none;stroke-dashoffset:0" />
  </g>
</svg>
